…
You can also provide different arguments (as you would to the endpoint). For example, the same function can be used to obtain the games for a speciifc team for a season:

```r
cbbdr::get_games(
  team = "Georgia Tech",
  season = 2025
) |>
  tibble::tibble()
#> # A tibble: 34 × 35
#>       id source_id season_label season season_type tournament start_date        
#>    <int> <chr>     <chr>         <int> <chr>       <chr>      <chr>             
#>  1   241 401715667 20242025       2025 regular     <NA>       2024-11-07T00:30:…
#>  2   446 401711744 20242025       2025 regular     <NA>       2024-11-10T18:00:…
#>  3   558 401715668 20242025       2025 regular     <NA>       2024-11-13T00:30:…
#>  4   712 401714898 20242025       2025 regular     <NA>       2024-11-16T01:00:…
#>  5  1099 401715631 20242025       2025 regular     <NA>       2024-11-23T19:00:…
#>  6  1386 401715669 20242025       2025 regular     <NA>       2024-11-28T00:30:…
#>  7  1488 401715670 20242025       2025 regular     <NA>       2024-11-30T18:00:…
#>  8  1597 401715671 20242025       2025 regular     <NA>       2024-12-04T02:00:…
#>  9  1768 401724770 20242025       2025 regular     <NA>       2024-12-07T19:00:…
#> 10  2129 401715403 20242025       2025 regular     <NA>       2024-12-15T21:00:…
#> # ℹ 24 more rows
#> # ℹ 28 more variables: start_time_tbd <lgl>, neutral_site <lgl>,
#> #   conference_game <lgl>, game_type <chr>, status <chr>, game_notes <chr>,
#> #   attendance <int>, home_team_id <int>, home_team <chr>,
#> #   home_conference_id <int>, home_conference <chr>, home_seed <lgl>,
#> #   home_points <int>, home_period_points <list>, home_winner <lgl>,
#> #   away_team_id <int>, away_team <chr>, away_conference_id <int>, …
```

Some functions do not require any parameters.

```r
cbbdr::get_venues() |>
  tibble::tibble()
#> # A tibble: 979 × 6
#>       id source_id name                                      city  state country
#>    <int> <chr>     <chr>                                     <chr> <chr> <chr>  
#>  1  1237 2292      Cancha Del Atletico                       Tucu… <NA>  Argent…
#>  2  1258 2566      St. George's High School                  Free… <NA>  <NA>   
#>  3  1621 6289      CARSA Performance Gym                     Vict… BC    Canada 
#>  4  1500 5287      Youth Arena                               Rio … <NA>  Brazil 
#>  5  1501 5288      Carioca Arena 1                           Rio … <NA>  Brazil 
#>  6  1290 3155      Jeunesse Arena                            Rio … <NA>  Brazil 
#>  7  1613 6276      Wuhan Sports Center                       Hebei <NA>  China  
#>  8  1359 4010      Cadillac Arena                            Beij… <NA>  China  
#>  9  1474 5073      Shenzhen Dayun Arena                      Shen… <NA>  China  
#> 10  1612 6275      Foshan International Sports & Cultural A… Guan… <NA>  China  
#> # ℹ 969 more rows
```
